{
	"AL": {
		"name": "Alabama",
		"pid": false,
		"dob": false
	},
	"AK": {
		"name": "Alaska",
		"pid": false,
		"dob": false
	},
	"AZ": {
		"name": "Arizona",
		"pid": false,
		"dob": false
	},
	"AR": {
		"name": "Arkansas",
		"pid": false,
		"dob": false
	},
	"CA": {
		"name": "California",
		"pid": false,
		"dob": false
	},
	"CO": {
		"name": "Colorado",
		"pid": false,
		"dob": false
	},
	"CT": {
		"name": "Connecticut",
		"pid": false,
		"dob": false
	},
	"DE": {
		"name": "Delaware",
		"pid": false,
		"dob": false
	},
	"DD": {
		"name": "Department of Defense Education Activity",
		"pid": false,
		"dob": false
	},
	"DC": {
		"name": "District of Columbia",
		"pid": false,
		"dob": false
	},
	"FL": {
		"name": "Florida",
		"pid": false,
		"dob": false
	},
	"GA": {
		"name": "Georgia",
		"pid": false,
		"dob": false
	},
	"HI": {
		"name": "Hawaii",
		"pid": false,
		"dob": false
	},
	"ID": {
		"name": "Idaho",
		"pid": false,
		"dob": false
	},
	"IL": {
		"name": "Illinois",
		"pid": false,
		"dob": false
	},
	"IN": {
		"name": "Indiana",
		"pid": false,
		"dob": false
	},
	"IA": {
		"name": "Iowa",
		"pid": false,
		"dob": false
	},
	"KS": {
		"name": "Kansas",
		"pid": false,
		"dob": false
	},
	"KY": {
		"name": "Kentucky",
		"pid": false,
		"dob": false
	},
	"LA": {
		"name": "Louisiana",
		"pid": false,
		"dob": false
	},
	"ME": {
		"name": "Maine",
		"pid": false,
		"dob": false
	},
	"MD": {
		"name": "Maryland",
		"pid": false,
		"dob": false
	},
	"MA": {
		"name": "Massachusetts",
		"pid": false,
		"dob": false
	},
	"MI": {
		"name": "Michigan",
		"pid": false,
		"dob": false
	},
	"MN": {
		"name": "Minnesota",
		"pid": false,
		"dob": false
	},
	"MS": {
		"name": "Mississippi",
		"pid": false,
		"dob": false
	},
	"MO": {
		"name": "Missouri",
		"pid": false,
		"dob": false
	},
	"MT": {
		"name": "Montana",
		"pid": false,
		"dob": false
	},
	"NE": {
		"name": "Nebraska",
		"pid": false,
		"dob": false
	},
	"NV": {
		"name": "Nevada",
		"pid": false,
		"dob": false
	},
	"NH": {
		"name": "New Hampshire",
		"pid": false,
		"dob": false
	},
	"NJ": {
		"name": "New Jersey",
		"pid": false,
		"dob": false
	},
	"NM": {
		"name": "New Mexico",
		"pid": false,
		"dob": false
	},
	"NY": {
		"name": "New York",
		"pid": false,
		"dob": false
	},
	"NC": {
		"name": "North Carolina",
		"pid": false,
		"dob": false
	},
	"ND": {
		"name": "North Dakota",
		"pid": false,
		"dob": false
	},
	"OH": {
		"name": "Ohio",
		"pid": false,
		"dob": false
	},
	"OK": {
		"name": "Oklahoma",
		"pid": false,
		"dob": false
	},
	"OR": {
		"name": "Oregon",
		"pid": false,
		"dob": false
	},
	"PA": {
		"name": "Pennsylvania",
		"pid": false,
		"dob": false
	},
	"RI": {
		"name": "Rhode Island",
		"pid": false,
		"dob": false
	},
	"SC": {
		"name": "South Carolina",
		"pid": false,
		"dob": false
	},
	"SD": {
		"name": "South Dakota",
		"pid": false,
		"dob": false
	},
	"TN": {
		"name": "Tennessee",
		"pid": false,
		"dob": false
	},
	"TX": {
		"name": "Texas",
		"pid": false,
		"dob": false
	},
	"UT": {
		"name": "Utah",
		"pid": false,
		"dob": false
	},
	"VT": {
		"name": "Vermont",
		"pid": false,
		"dob": false
	},
	"VA": {
		"name": "Virginia",
		"pid": false,
		"dob": false
	},
	"WA": {
		"name": "Washington",
		"pid": false,
		"dob": false
	},
	"WV": {
		"name": "West Virginia",
		"pid": false,
		"dob": false
	},
	"WI": {
		"name": "Wisconsin",
		"pid": false,
		"dob": false
	},
	"WY": {
		"name": "Wyoming",
		"pid": false,
		"dob": false
	}
}
