{
  "battery": {
    "id": "i1426601393111269",
    "name": "Test Batteries 1",
    "program": "Speaking & Listening",
    "subject": "English Language Arts",
    "grade": "Multi-level",
    "security": "Secure",
    "multimedia": "Embed multimedia in test package",
    "scoring": "Immediate",
    "permissions": "Requires Custom Permissions",
    "privacy": "Private",
    "description": "Battery Description"
  },
  "form": {
    "id": "i1426611008896570",
    "name": "A",
    "testId": "i1426188564456536",
    "testName": "QTI Example Test"
  },
  "revision": {
    "id": "i1426612072744474",
    "version": "3",
    "compiledDateTime": "03-17-2015 12:07:52",
    "compiledBy": "Mahmoud Kasdi"
  }
}